|      Page     |   Page Table Entry   
|---------------|------------------------------------
|      0x0      |      2       
|      0x1      |      3       
|      0x2      |      4       
|      0x3      |      5       
|      0x4      |      6       
|      0x5      |      7       
|      0x6      |      8       
|      0x7      |      9       
|      0x8      |      10       
|      0x9      |      11       
|      0xa      |      12       
|      0xb      |      13       
|      0xc      |      14       
|      0xd      |      15       
|      0xe      |      16       
|      0xf      |      17       
|      0x10      |      18       
|      0x11      |      19       
